hw2
…
Multiple Linear Regression

To analyze the effect of various environmental variables on the abundance of ARID plants, multivariate linear regression was performed on the dataset.

library(tidyverse)
library(car)
library(knitr)
library(broom)
library(Hmisc)

multi_data <- read_tsv('./Data/multivariate-1.tsv')
multi_data

## # A tibble: 73 x 7
##     ARID   MAP   MAT JJAMAP DJFMAP   LONG   LAT
##    <dbl> <int> <dbl>  <dbl>  <dbl>  <dbl> <dbl>
##  1  0.65   199  12.4   0.12   0.45 119.55 46.40
##  2  0.65   469   7.5   0.24   0.29 114.27 47.32
##  3  0.76   536   7.2   0.24   0.20 110.78 45.78
##  4  0.75   476   8.2   0.35   0.15 101.87 43.95
##  5  0.33   484   4.8   0.40   0.14 102.82 46.90
##  6  0.03   623  12.0   0.40   0.11  99.38 38.87
##  7  0.00   259  14.5   0.47   0.17 106.75 32.62
##  8  0.02   969  15.3   0.30   0.14  96.55 36.95
##  9  0.05   542  13.9   0.44   0.13 101.53 35.30
## 10  0.05   421   8.5   0.31   0.14 104.60 40.82
## # ... with 63 more rows
…
Problem 2

Analyze a fabricated dataset relating concentration of bacteria in a biofilm to a four-level categorical variable using single-factor ANOVA model.

Exploratory Data Analysis

Bacteria were sampled from different known levels of soil type in this experiment. We can consider these levels fixed variables, as the results from each soil type cannot be extrapolated to different soil types.

library(ggpubr)

biofilm <- read_tsv('./Data/biofilm-1.tsv')
biofilm

## # A tibble: 80 x 2
##    BIOFILM  CONC
##      <chr> <int>
##  1      SL    61
##  2      SL   113
##  3      SL   120
##  4      SL    75
##  5      SL    72
##  6      SL    83
##  7      SL    95
##  8      SL    66
##  9      SL   113
## 10      SL   119
## # ... with 70 more rows
…
