Long Report 1
…
# calculate coverage
altai_sums <- altai[28:nrow(altai),] %>% mutate(coverage = rowSums(.[2:5]))
denis_sums <- denis[62:nrow(denis),] %>% mutate(coverage = rowSums(.[2:5]))

Now there is a column that sums the instances of each base across sites for each region (coverage). The mean coverage for each site in the altai is 191.6794605, and 89.5709469 in the denisovan. The coverage appears highest for each species in the mitochondrial region,.

# generate mean coverage for each region Altai
altai_sums %>% 
  group_by(region) %>%
  summarise(mean_altaicov = mean(coverage)) -> altai_cov

# make regions factor levels 
altai_cov %>% mutate_if(., is.character, as.factor)

## # A tibble: 101 x 2
##    region mean_altaicov
##    <fctr>         <dbl>
##  1      1     200.64309
##  2     10     222.45545
##  3    100      61.27339
##  4     11     621.65709
##  5     12     239.88976
##  6     13     210.38873
##  7     14     163.31727
##  8     15     113.38994
##  9     16      83.04582
## 10     17      90.64739
## # ... with 91 more rows

# generate mean coverage for each region Denis
denis_sums %>% 
  group_by(region) %>%
  summarise(mean_deniscov = mean(coverage)) -> denis_cov

# make regions factor levels
denis_cov %>% mutate_if(., is.character, as.factor)

## # A tibble: 101 x 2
##    region mean_deniscov
##    <fctr>         <dbl>
##  1      1     109.67521
##  2     10      57.87394
##  3    100      27.65976
##  4     11      73.45770
##  5     12      67.14812
##  6     13      91.98867
##  7     14     130.40103
##  8     15     101.54588
##  9     16      75.42364
## 10     17      48.12188
## # ... with 91 more rows
…
